<svg xmlns="http://www.w3.org/2000/svg" xmlns:xlink="http://www.w3.org/1999/xlink" width="1400" height="500" viewBox="0 0 1400 500">
  <defs>
    <linearGradient id="linear-gradient" x1="0.92" y1="0.151" x2="0.198" y2="0.902" gradientUnits="objectBoundingBox">
      <stop offset="0" stop-color="#1f8cfa"/>
      <stop offset="1" stop-color="#0566ef"/>
    </linearGradient>
  </defs>
  <g id="BG" transform="translate(0 -796.894)">
    <path id="bg-2" data-name="bg" d="M492.391,1345.911c239.406,39.516,653.234,47.49,809.977,9.544l.633,396.456H-97v-406C61.708,1317.251,252.984,1306.4,492.391,1345.911Z" transform="translate(97 -455.018)" opacity="0.25" fill="url(#linear-gradient)" style="mix-blend-mode: darken;isolation: isolate"/>
    <path id="bg-3" data-name="bg" d="M580,1363c-187.2,48.217-405.008,83.831-677,94.532v335.362H1303V1321.4C1144.292,1257.3,767.746,1314.641,580,1363Z" transform="translate(97 -496)" fill="#fff"/>
  </g>
</svg>
