<svg xmlns="http://www.w3.org/2000/svg" xmlns:xlink="http://www.w3.org/1999/xlink" width="130" height="98" viewBox="0 0 130 98">
  <defs>
    <clipPath id="clip-path">
      <rect id="mask" width="130" height="98" transform="translate(117 648)" fill="#fff"/>
    </clipPath>
    <filter id="line" x="-17.5" y="0.5" width="163" height="92" filterUnits="userSpaceOnUse">
      <feOffset input="SourceAlpha"/>
      <feGaussianBlur stdDeviation="15" result="blur"/>
      <feFlood flood-color="#0566ef"/>
      <feComposite operator="in" in2="blur"/>
      <feComposite in="SourceGraphic"/>
    </filter>
    <filter id="line-2" x="145.5" y="0.5" width="163" height="92" filterUnits="userSpaceOnUse">
      <feOffset input="SourceAlpha"/>
      <feGaussianBlur stdDeviation="15" result="blur-2"/>
      <feFlood flood-color="#0566ef"/>
      <feComposite operator="in" in2="blur-2"/>
      <feComposite in="SourceGraphic"/>
    </filter>
  </defs>
  <g id="bg" transform="translate(-117 -648)" clip-path="url(#clip-path)">
    <g id="line-3" data-name="line" transform="translate(-338 -123)">
      <g id="グループ_655" data-name="グループ 655">
        <line id="line-4" data-name="line" x2="73" transform="translate(482.5 818.5)" fill="rgba(0,0,0,0)" stroke="#7cb3e9" stroke-width="10" opacity="0.03"/>
        <g transform="matrix(1, 0, 0, 1, 455, 771)" filter="url(#line)">
          <line id="line-5" data-name="line" x2="73" transform="translate(27.5 46.5)" fill="none" stroke="#fff" stroke-width="2"/>
        </g>
      </g>
      <g id="グループ_656" data-name="グループ 656">
        <line id="line-6" data-name="line" x2="73" transform="translate(645.5 818.5)" fill="rgba(0,0,0,0)" stroke="#7cb3e9" stroke-width="10" opacity="0.03"/>
        <g transform="matrix(1, 0, 0, 1, 455, 771)" filter="url(#line-2)">
          <line id="line-7" data-name="line" x2="73" transform="translate(190.5 46.5)" fill="none" stroke="#fff" stroke-width="2"/>
        </g>
      </g>
    </g>
  </g>
</svg>
