<svg xmlns="http://www.w3.org/2000/svg" width="12.387" height="10.1" viewBox="0 0 12.387 10.1">
  <path id="brank" d="M628.418,247.872v1.286h-5.857v-4.571h1.286m2.143,1.142v-5.571h7.858v5.571Z" transform="translate(-622.011 -239.608)" fill="none" stroke="#208cfa" stroke-linecap="round" stroke-linejoin="round" stroke-width="1.1"/>
</svg>
