<svg xmlns="http://www.w3.org/2000/svg" xmlns:xlink="http://www.w3.org/1999/xlink" width="1400" height="240" viewBox="0 0 1400 240">
  <defs>
    <clipPath id="clip-path">
      <rect id="長方形_1105" data-name="長方形 1105" width="1400" height="240" transform="translate(0 2925.894)" fill="#fff" stroke="#707070" stroke-width="1"/>
    </clipPath>
    <linearGradient id="linear-gradient" x1="0.92" y1="0.151" x2="0.198" y2="0.902" gradientUnits="objectBoundingBox">
      <stop offset="0" stop-color="#1f8cfa"/>
      <stop offset="1" stop-color="#0566ef"/>
    </linearGradient>
  </defs>
  <g id="bg" transform="translate(0 -2925.894)" clip-path="url(#clip-path)">
    <g id="グループ_56" data-name="グループ 56">
      <path id="bg-2" data-name="bg" d="M492.391,1345.638c239.406,39.516,653.234,47.764,809.977,9.818L1303,2838.784H-97V1345.638C61.708,1316.977,252.984,1306.122,492.391,1345.638Z" transform="translate(97 301.547)" opacity="0.25" fill="url(#linear-gradient)" style="mix-blend-mode: darken;isolation: isolate"/>
      <path id="bg-3" data-name="bg" d="M580,1363c-187.2,48.217-405.008,83.831-677,94.532V2906H1303V1321.4C1144.292,1257.3,767.746,1314.641,580,1363Z" transform="translate(97 260)" fill="#e5f1fe"/>
    </g>
  </g>
</svg>
