<svg xmlns="http://www.w3.org/2000/svg" width="61.796" height="50" viewBox="0 0 61.796 50">
  <g id="icon" transform="translate(-419 -5475)">
    <path id="icon-2" data-name="icon" d="M1368.419,33.121c-.4,0-.781-.264-1.226-.852l.01-1.414a16.766,16.766,0,0,1,1.21-2.67,5.866,5.866,0,0,1,4.943-2.688c1-.016,1.96-.026,2.921-.026q1.337,0,2.675.026a6.359,6.359,0,0,1,6.149,5.325,5.551,5.551,0,0,1,.015,1.129,1.148,1.148,0,0,1-1.144,1.141h0a1.267,1.267,0,0,1-1.295-1.133,3.893,3.893,0,0,0-2.9-3.818,3.974,3.974,0,0,0-1.124-.177h0c-1.54,0-3.081.02-4.62.041l-.452,0a3.844,3.844,0,0,0-2.432.87,3.714,3.714,0,0,0-1.388,2.56l-.012.122a1.54,1.54,0,0,1-.573,1.3A1.411,1.411,0,0,1,1368.419,33.121Zm59.332-.02c-.665,0-1.06-.373-1.2-1.129l-.053-.276a4.462,4.462,0,0,0-.911-2.309,3.5,3.5,0,0,0-2.4-1.332c-1.351-.073-2.755-.108-4.294-.108q-.536,0-1.072.006a3.842,3.842,0,0,0-3.789,2.108,5.864,5.864,0,0,0-.492,1.7c-.09.607-.379,1.331-1.247,1.331l-.084,0c-.749-.039-1.139-.528-1.13-1.414v-.241a6.2,6.2,0,0,1,5.093-5.808,22.9,22.9,0,0,1,2.536-.142q.284,0,.568.007c.232,0,.461-.006.69-.006.294,0,.589,0,.883.006.279,0,.558,0,.837,0,.325,0,.651,0,.976-.011a6.339,6.339,0,0,1,5.982,4.33,9.333,9.333,0,0,1,.34,1.891,1.241,1.241,0,0,1-1.065,1.384c-.055,0-.109.007-.163.007Zm-27.147-.01a1.149,1.149,0,0,1-1.138-1.051,1.115,1.115,0,0,1,0-.2c-.015-1.046-.014-2.087-.014-3.127V26.755h-2.712l0,2.937c0,.74,0,1.48-.017,2.219a1.129,1.129,0,0,1-1.079,1.177h-.1a1.246,1.246,0,0,1-1.26-1.2v-.061q0-1.467,0-2.93V26.779l-.048,0a18.327,18.327,0,0,1-1.854-.193,2.443,2.443,0,0,1-1.964-2.461l0-1.049c0-.894-.005-1.788.009-2.683a.613.613,0,0,0-.446-.663,18.457,18.457,0,0,1-4.683-3.065,18.424,18.424,0,0,1-4.388-5.623,19.03,19.03,0,0,1-2-6.862,18.3,18.3,0,0,1,2.171-10.847,26.086,26.086,0,0,1,2.748-3.841,16.741,16.741,0,0,1,5.759-4.394,19.032,19.032,0,0,1,6.559-1.872,19.33,19.33,0,0,1,1.976-.1,19.378,19.378,0,0,1,9.052,2.253,18.321,18.321,0,0,1,4.7,3.5,19.3,19.3,0,0,1,5.133,9.494,17.516,17.516,0,0,1,.37,5.328,19.079,19.079,0,0,1-4.115,10.494,19.007,19.007,0,0,1-7.121,5.589.755.755,0,0,0-.337.581c-.02.907-.018,1.813-.017,2.718v1.014a2.585,2.585,0,0,1-2.553,2.619h-1.314v5.078a1.246,1.246,0,0,1-1.164,1.3h-.057C1400.667,33.089,1400.635,33.09,1400.6,33.09Zm-7.681-8.958h10.366V20.84l-.064.017a19.468,19.468,0,0,1-10.238.008l-.064-.018Zm5.166-38.491a16.836,16.836,0,0,0-16.736,15.592,16.662,16.662,0,0,0,4.526,12.526A16.408,16.408,0,0,0,1397.706,19c.134,0,.267,0,.4-.006h.108a16.712,16.712,0,0,0,16.611-15.473,16.732,16.732,0,0,0-15.5-17.844l-.054,0c-.354-.019-.7-.029-1.049-.029Zm21.867,37.2a5.038,5.038,0,0,1-5.021-4.976l.005-.149a5.03,5.03,0,0,1,4.984-5.075h.135a5.058,5.058,0,0,1,5.062,5.03c0,.111,0,.223-.01.335a4.991,4.991,0,0,1-5.005,4.836Zm.066-2.514a2.685,2.685,0,0,0,1.954-.879,2.194,2.194,0,0,0,.594-1.7,2.207,2.207,0,0,0-.589-1.713,2.679,2.679,0,0,0-1.955-.883h-.074a2.546,2.546,0,0,0-2.531,2.48v.094a2.535,2.535,0,0,0,2.461,2.6ZM1376.1,22.836a5,5,0,0,1-5.012-4.8l0-.057a5.048,5.048,0,0,1,4.731-5.336q.153-.008.306-.009h.107a5.045,5.045,0,0,1,5.021,4.941v.151a5.006,5.006,0,0,1-4.895,5.105Zm-2.467-5.065a2.2,2.2,0,0,0,.6,1.671,2.687,2.687,0,0,0,1.955.881h.07a2.54,2.54,0,0,0,2.532-2.508v-.089a2.54,2.54,0,0,0-2.5-2.578h-.081a2.753,2.753,0,0,0-2,.921,2.153,2.153,0,0,0-.571,1.687Zm24.189-1.344a12.57,12.57,0,0,1-5.476-1.262v0c-.918-.45-1.808-.986-2.571-1.452a1.215,1.215,0,0,1-.512-1.639c.014-.025.028-.051.042-.075a1.239,1.239,0,0,1,1.692-.463l.06.036a28.99,28.99,0,0,0,2.977,1.588,10.942,10.942,0,0,0,4,.755,11.019,11.019,0,0,0,1.994-.183,11.887,11.887,0,0,0,6.58-3.494,5.261,5.261,0,0,0,.409-.492c.06-.079.121-.159.185-.238l.035-.044-1.257-.834c-1.92-1.275-3.817-2.536-5.722-3.784a1.325,1.325,0,0,0-.612-.15l-.07,0-.585-.011c-.366-.007-.732-.015-1.1-.015-.494,0-.9.014-1.285.043a3.437,3.437,0,0,0-1.36.5c-1.6.9-3.2,1.816-4.791,2.73q-1.629.933-3.259,1.862a1.279,1.279,0,0,1-1.764-.413,1.22,1.22,0,0,1-.078-.146,12.756,12.756,0,0,1-1.34-7.124,1.262,1.262,0,0,1,1.228-1.056,1.362,1.362,0,0,1,1.2,1.241l.046.692c.056.864.115,1.758.207,2.632a8.01,8.01,0,0,0,.361,1.291l.021.056,6.674-3.8-.051-.048a6.2,6.2,0,0,1-1.938-3.807c-.061-.688-.022-3.035-.038-3.512a6.482,6.482,0,0,1,4.935-6.127,6.39,6.39,0,0,1,1.424-.161A6.425,6.425,0,0,1,1403.143-8a5.837,5.837,0,0,1,1.319,3.953,35.935,35.935,0,0,1-.18,4.159,5.962,5.962,0,0,1-1.847,3.067l-.05.044,6.2,4.117.026-.053a10.834,10.834,0,0,0,1.033-3.816,7.119,7.119,0,0,1,.271-1.677,1.127,1.127,0,0,1,1.052-.711,1.163,1.163,0,0,1,.173.013,1.19,1.19,0,0,1,1.061,1.211,13.249,13.249,0,0,1-2.928,8.613,13.587,13.587,0,0,1-8.739,5.277,15.748,15.748,0,0,1-2.61.225Zm-3.407-21.614a10.967,10.967,0,0,0-.157,4.044,3.773,3.773,0,0,0,1,2.251,3.821,3.821,0,0,0,2.861,1.238A3.615,3.615,0,0,0,1401.5.3a6.387,6.387,0,0,0,.454-1.938,14.389,14.389,0,0,0,.068-2.407,4.007,4.007,0,0,0-1.221-2.846,3.965,3.965,0,0,0-2.7-1.078h-.031a3.815,3.815,0,0,0-3.639,2.722l-.017.059Z" transform="translate(-948.193 5491.879)" fill="#1f8cfa"/>
  </g>
</svg>
