<svg xmlns="http://www.w3.org/2000/svg" width="1400" height="890" viewBox="0 0 1400 890">
  <g id="bg" transform="translate(-40.333 -76.154)">
    <g id="グループ_58" data-name="グループ 58">
      <path id="パス_358" data-name="パス 358" d="M1439.833,642.607c-26.182,27.066-64.913,57.417-127.719,86.632-130.611,73.636-246.935,104.92-406.321,104.915-93.508,0-201.86-10.776-336.552-30.083C241.06,757.024,150.9,767.226,40.833,795.706l-.5-.1V966.154h1400V642.282Z" fill="#fff"/>
      <path id="パス_359" data-name="パス 359" d="M596.286,499.786c284.867,2.834,488.747-135.008,626.124-301.777,46.867-47.073,68.366-87.872,79.4-121.355l.32-.5H40.333v563l.5-4.107C145.445,565.544,311.871,496.954,596.286,499.786Z" fill="#fff"/>
    </g>
    <path id="パス_361" data-name="パス 361" d="M100.44,847.769c7.907-5.281,16.054-10.268,24.216-14.821,8.634-4.82,17.535-9.295,26.454-13.3,9.392-4.218,19.076-8.039,28.783-11.357,10.175-3.482,20.673-6.509,31.2-9,11-2.6,22.338-4.694,33.709-6.217,23.285-3.12,44.17-5.369,63.849-6.877,21.1-1.614,41.017-2.4,60.883-2.4,23.816,0,47.558,1.134,72.583,3.466-46.164-5.472-86.2-9.393-122.4-11.987-34.888-2.5-65.519-3.716-93.646-3.716-19.406,0-37.252.574-54.559,1.756-16.222,1.108-31.607,2.727-47.035,4.95-32.425,4.669-60.73,11.5-84.143,17.569v101.34a429.56,429.56,0,0,1,38.04-33.481C85.591,858.083,93.016,852.725,100.44,847.769Z" fill="#e5f1fe"/>
    <path id="パス_362" data-name="パス 362" d="M1418.137,663.041c-8.7,7.482-18.133,14.813-28.033,21.792-10.837,7.636-22.6,15.106-34.976,22.206-13.352,7.666-27.825,15.134-43.016,22.2-16.41,9.249-32.7,17.88-48.421,25.649-16.026,7.918-32.091,15.255-47.754,21.808-15.877,6.644-31.946,12.733-47.759,18.1-15.952,5.415-32.247,10.3-48.436,14.515-16.251,4.235-33.013,7.959-49.784,11.064s-34.2,5.71-51.8,7.742c-17.518,2.022-35.854,3.55-54.5,4.55-18.463.988-37.936,1.488-57.864,1.488-45.681,0-95.674-2.551-152.833-7.8C700,821.491,639.909,814.2,569.243,804.072c-22.417-3.218-44.118-6.218-64.5-8.918,44.09,6.84,94.756,17.069,159.446,32.189,56.677,13.246,123.768,30.1,224.34,56.37,25.314,6.611,50.387,12.42,74.522,17.266,23.106,4.643,45.987,8.524,68.006,11.543,21.012,2.881,41.805,5.057,61.811,6.457,19.013,1.334,37.834,2.011,55.943,2.011h.022c17.676,0,35.168-.644,51.99-1.916,15.768-1.191,31.391-2.966,46.433-5.275,13.972-2.144,27.847-4.813,41.238-7.93,12.285-2.859,24.533-6.18,36.406-9.88a517.025,517.025,0,0,0,59.751-22.786c17.25-7.794,31.85-15.4,44.732-22.11l.018-.009.094-.049c3.8-1.981,7.394-3.851,10.835-5.612V642.085C1433.388,649.295,1425.921,656.341,1418.137,663.041Z" fill="#e5f1fe"/>
    <path id="パス_363" data-name="パス 363" d="M718.3,492.05a764.872,764.872,0,0,0,76.447-14.713,744.511,744.511,0,0,0,71.745-21.569c22.684-8.093,45.27-17.426,67.131-27.74,21.18-9.993,42.243-21.172,62.607-33.228,19.7-11.666,39.272-24.461,58.167-38.032,18.258-13.115,36.366-27.3,53.818-42.152,16.834-14.329,33.507-29.667,49.556-45.588-1.5.1-3.037.2-4.573.307-14.534.995-29.009,2.321-43.025,3.942-13.689,1.583-27.338,3.493-40.566,5.676-12.9,2.129-25.773,4.583-38.258,7.283-12.154,2.632-24.3,5.581-36.1,8.765-22.536,6.082-44.85,13.306-66.323,21.472-20.019,7.611-40.035,16.322-59.5,25.889-75.31,37.015-135.537,83.058-193.783,127.587-12.651,9.673-25.732,19.673-38.585,29.273l.007,0A807.937,807.937,0,0,0,718.3,492.05Z" fill="#e5f1fe"/>
  </g>
</svg>
